
restify listening to http://[::]:3978

Get Bot Framework Emulator: https://aka.ms/botframework-emulator

To talk to your bot, open qnamaker.bot file in the emulator.

restify listening to http://[::]:3978

Get Bot Framework Emulator: https://aka.ms/botframework-emulator

To talk to your bot, open qnamaker.bot file in the emulator.
